"chou_fasman","emini","kolaskar_tongaonkar","parker","isoelectric_point","aromaticity","hydrophobicity","stability"
-1.38210474208423,0.42584204549580,-0.842457450942379,0.424786457450942,-0.425897423508542,1.94379345098432,-0.341289754298572,-1.39814754578792
-0.630796610275415,0.42986544460163,0.349630761294823,-0.0340970531673182,-0.0889478669538496,1.94435158233415,1.67855456115296,-1.39941953987139
1.16447431173866,0.648123746774272,-1.11865359579973,1.11370252613967,0.872577088293962,-0.210120997664885,1.20924607159474,0.323531496590948